{
  "globalDependencies": {
    "core-js": "registry:dt/core-js#0.0.0+20160602141332",
    "jasmine": "registry:dt/jasmine#2.2.0+20160621224255",
    "jquery": "registry:dt/jquery#1.10.0+20160908203239",
    "node": "registry:dt/node#6.0.0+20160807145350",
    "socket-io-client":"github:DefinitelyTyped/DefinitelyTyped/socket.io-client/socket.io-client.d.ts#7de6c3dd94feaeb21f20054b9f30d5dabc5efabd"
  }
}
